{
  "type": "service_account",
  "project_id": "singular-range-373710",
  "private_key_id": "365f0708a48691ffdee04bd7a019f9784f58516d",
  "private_key": "-----BEGIN PRIVATE KEY-----\nMIIEvgIBADANBgkqhkiG9w0BAQEFAASCBKgwggSkAgEAAoIBAQDcfpCp58dORBFY\nG9rqgZwYEd2tiOz8fJ1lZclyTMFk+QcU8QpADVlEc4rpEGeOmLC0MHvI9JzccG8w\n0KAYm70/imXh4AkWSWnS0cHwgIabjBOHJ+Ag0K4Jj2mkDYFZpT7j/Szm1lKsvnNt\nzB0dkJaraKlD/RpFjrmQ9a5+1mJt8GVCKVV9yztlyMZqZmrX8re4rQYhhBDB8Nzx\nmRxfOov4OwmX/uLxuhZWWUYNzW3/5HojnD7XZdbzeWL28Mka2ES4BitNiDzCpoHt\npFWWjyNoKZ/zF8RS588vSC9A2As995apQQVMyKndhAbmuRIyrrf7Pv8RfD47XpRS\nddxM2qMFAgMBAAECggEAHOZK1DYgkZHK2ytFeWyU9rOqxDK46wvzPkXFzkEgrPkV\n1EkWgJgvTdE+EPeZNx+ss2VSaB+liqAC9tk1TpxlBNXBLkaEsmLbZ6od+wWBfxQw\nQAv6LJrlYLPnEv1BKayGrm+xyayoJ+OLcgXpgAVCNkOwwcxD+/9ts4H8BbxYKNP1\nsCoCgz42a6lLwwl9CBrjc2ZO3xvtWLkJ1SATisLXN4VzGmfkRGrfDlGEqN4kSA4x\nDr2B9Zx/SYj8+49h4zEh4UYK1Miym183+ovGbbi9FrP5r8wXqokRt8upJT00uTMD\n8LNlFiDyGQ6BljiTwI07yRoeBvqU4yJ5+RVCtD9NMQKBgQD8jYLWuu6GX1ASkm4p\nM+EYYwro4OJr1PCFXpjOOOzupxnld8QcgzWTO1mz1KV1M/5b4FO9d+JNoW3eN0ep\njIOUerm6Pqg0r7S4zx+FkrqqE3kjk7ePXuGBlVLjPu5ZFafOUiWTocKJGZqHUlmR\nYihg1O+QYfKX9j9gi0G9OC3gNQKBgQDfgQh/NzD4WpszpMplIij8e4cHutCOMGlf\nn6Pu9rvTl5vGz0cGxGA2gZXacHJRf8aGEY4W3mD9h1qycVALNK7TSmCA293SaWSm\nk7+m3VeH2qMMSG8hu+QkMbfvMlMj0kNs0uYSwJuXLgmP49KnudZyvLil2wZAkYLM\n8PVCJrKxkQKBgHcvER/k98vSDye0kug+42tu0ic0eaYJx7go/FPV6Xp2wXHZI2OR\nSCdDSwHiyHKXJuKU6u/vM40PMZo83ETXWwEnKZ8LErZKdS8CEA4pQI4iwnhXrbir\nPiC5J3S2riS8Y4Sqn7EcFYI94v8ZjcteV0/bLXMlxiaQvzgAf/WcHYpBAoGBAMh6\nNEXwGpPaqfYj7YvTnVID93Xegy3XjN1CE8jINmgwSIGG8V3Hjcm2aNU8Ib6qz0b4\nviwTIoqm+5qt+y9h/SL3RyKulQUkliy4wKMLTXVFjxT4b/6hS52Pnz4GNP8fnm0h\nq0/MxoNPvzH7F7xs/EeEslfK44vNObdct5GzpnuRAoGBAMxIaukWQvNI3OTZ9Ijf\noy5OGWuzDApNIUKtuqS5I8UvDG/1mXcX2DI4PobyizpPmOHXuNQMDmvlgCSujJ3e\nxSpi8ghCnUh8O4glEdZwrStrM/++2L/WTYf3oVkRc6bwPoDsEeCQl1+vPsjNkbJA\nH3hzPPpirb5LZVbzovb4NmXl\n-----END PRIVATE KEY-----\n",
  "client_email": "tester-robot@singular-range-373710.iam.gserviceaccount.com",
  "client_id": "106747178517607968586",
  "auth_uri": "https://accounts.google.com/o/oauth2/auth",
  "token_uri": "https://oauth2.googleapis.com/token",
  "auth_provider_x509_cert_url": "https://www.googleapis.com/oauth2/v1/certs",
  "client_x509_cert_url": "https://www.googleapis.com/robot/v1/metadata/x509/tester-robot%40singular-range-373710.iam.gserviceaccount.com"
}
