<?xml version="1.0" encoding="utf-8"?>
<!-- Generator: Adobe Illustrator 25.0.0, SVG Export Plug-In . SVG Version: 6.00 Build 0)  -->
<svg version="1.1" id="Layer_1" xmlns="http://www.w3.org/2000/svg" xmlns:xlink="http://www.w3.org/1999/xlink" x="0px" y="0px"
	 viewBox="0 0 40.9 53" style="enable-background:new 0 0 40.9 53;" xml:space="preserve">
<style type="text/css">
	.st0{fill:#015488;}
</style>
<g>
	<path class="st0" d="M20.7,43.1c0.4,0,0.8-0.2,1-0.5c0.7-0.7,14.6-17.9,14.6-26.2c0-2.7-0.7-5.3-2-7.7c-0.3-0.7-1.2-0.8-1.8-0.5
		C31.9,8.6,31.7,9.4,32,10c1.1,2,1.7,4.2,1.7,6.4c0,5.7-8.6,17.7-13,23.3c-4.4-5.6-13-17.6-13-23.3c0-7.2,5.9-13,13-13
		c3,0,5.9,1,8.3,2.9c0.6,0.5,1.4,0.4,1.8-0.2c0.5-0.6,0.4-1.4-0.2-1.8c-2.8-2.3-6.3-3.5-9.9-3.5c-8.6,0-15.6,7-15.6,15.6
		c0,8.3,14,25.5,14.6,26.2C19.9,43,20.3,43.1,20.7,43.1z"/>
	<path class="st0" d="M13.3,16.5c0,4.1,3.3,7.4,7.4,7.4s7.4-3.3,7.4-7.4s-3.3-7.4-7.4-7.4S13.3,12.4,13.3,16.5z M25.5,16.5
		c0,2.7-2.1,4.8-4.8,4.8s-4.8-2.1-4.8-4.8s2.1-4.8,4.8-4.8S25.5,13.8,25.5,16.5z"/>
	<path class="st0" d="M20.7,51.7c0.3,0,0.7,0,1,0c0.7,0,1.3-0.6,1.3-1.3s-0.6-1.3-1.3-1.3c-0.3,0-0.7,0-1,0C9.9,49.1,3,46,3,43.8
		c0-1.2,2.1-2.9,7-4.1c0.7-0.2,1.1-0.9,1-1.6c-0.2-0.7-0.9-1.1-1.6-1c-5.7,1.4-8.9,3.8-8.9,6.6C0.4,49,10.6,51.7,20.7,51.7z"/>
	<path class="st0" d="M27.8,51.2c0.1,0,0.1,0,0.2,0c1.4-0.2,2.8-0.5,4.1-0.8c0.7-0.2,1.1-0.9,1-1.6c-0.2-0.7-0.9-1.1-1.6-1
		c-1.2,0.3-2.5,0.5-3.8,0.7c-0.7,0.1-1.2,0.8-1.1,1.5C26.6,50.7,27.1,51.2,27.8,51.2z"/>
	<path class="st0" d="M35.2,46.6c-0.7,0.3-0.9,1-0.7,1.7c0.2,0.5,0.7,0.8,1.2,0.8c0.2,0,0.4-0.1,0.5-0.1c3.8-1.8,4.7-3.8,4.7-5.2
		c0-2.9-3.2-5.2-8.9-6.6c-0.7-0.2-1.4,0.3-1.6,1c-0.2,0.7,0.3,1.4,1,1.6c4.8,1.2,7,2.9,7,4.1C38.4,44.7,37.2,45.7,35.2,46.6z"/>
</g>
</svg>
